<?xml version="1.0" encoding="UTF-8" standalone="no"?>
<svg
   xmlns:dc="http://purl.org/dc/elements/1.1/"
   xmlns:cc="http://creativecommons.org/ns#"
   xmlns:rdf="http://www.w3.org/1999/02/22-rdf-syntax-ns#"
   xmlns:svg="http://www.w3.org/2000/svg"
   xmlns="http://www.w3.org/2000/svg"
   xmlns:sodipodi="http://sodipodi.sourceforge.net/DTD/sodipodi-0.dtd"
   xmlns:inkscape="http://www.inkscape.org/namespaces/inkscape"
   version="1.1"
   id="svg1"
   width="16"
   height="16"
   viewBox="0 0 16 16"
   sodipodi:docname="align-vertical-bottom-to-anchor-symbolic.svg"
   inkscape:version="1.0alpha2 (e9298ea62f, 2019-07-05, custom)">
<style id="style0001">
.success{fill:#33d17a}
.warning{fill:#f57900}
.danger{fill:#cc0000}
</style>

  
<metadata
     id="metadata1045">
    <rdf:RDF>
      <cc:Work
         rdf:about="">
        <dc:format>image/svg+xml</dc:format>
        <dc:type
           rdf:resource="http://purl.org/dc/dcmitype/StillImage" />
      </cc:Work>
    </rdf:RDF>
  </metadata>
  <defs
     id="defs1043" />
  <sodipodi:namedview
     objecttolerance="10"
     gridtolerance="10"
     guidetolerance="10"
     id="namedview"
     showgrid="true"
     inkscape:zoom="31.5625"
     inkscape:cx="8"
     inkscape:cy="8"
     inkscape:window-width="1360"
     inkscape:window-height="704"
     inkscape:window-x="0"
     inkscape:window-y="27"
     inkscape:window-maximized="1"
     inkscape:current-layer="align-vertical-bottom-to-anchor"
     inkscape:document-rotation="0"
     inkscape:snap-global="false">
    <inkscape:grid
       type="xygrid"
       id="grid" />
  </sodipodi:namedview>
  <g
     transform="matrix(0.666667,0,0,0.666667,-696,-421.57479)"
     inkscape:label="00268"
     id="align-vertical-bottom-to-anchor">
    <path
       inkscape:connector-curvature="0"
       id="rect22048"
       d="m 632.36218,-1068 h 24 v 24 h -24 z"
       style="opacity:0;fill:none"
       transform="rotate(90)" />
    <path
       inkscape:connector-curvature="0"
       id="rect22050"
       d="m 652.36218,-1068 h 4 v 4 h -4 z"
       style="opacity:1"
       transform="rotate(90)" />
    <path
       inkscape:connector-curvature="0"
       id="rect22052"
       d="m 1068,649.75107 v 1.5 h -24 v -1.5 z"
       style="opacity:1;stroke-width:1.22474"
       class="success" />
    <path
       inkscape:connector-curvature="0"
       id="rect22054"
       d="m 1064,633.36218 v 15.08967 h -5 v -15.08967 z"
       style="opacity:1;stroke-width:0.971135" />
    <path
       inkscape:connector-curvature="0"
       id="rect22056"
       d="m 1057,639.02081 v 9.43104 h -3 v -9.43104 z"
       style="opacity:1;stroke-width:0.971135" />
    <path
       inkscape:connector-curvature="0"
       id="rect22058"
       d="m 1052,635.24839 v 13.20346 h -4 v -13.20346 z"
       style="opacity:1;stroke-width:0.971135" />
  </g>
</svg>
