<?xml version="1.0" encoding="UTF-8" standalone="no"?>
<svg
   xmlns:dc="http://purl.org/dc/elements/1.1/"
   xmlns:cc="http://creativecommons.org/ns#"
   xmlns:rdf="http://www.w3.org/1999/02/22-rdf-syntax-ns#"
   xmlns:svg="http://www.w3.org/2000/svg"
   xmlns="http://www.w3.org/2000/svg"
   xmlns:sodipodi="http://sodipodi.sourceforge.net/DTD/sodipodi-0.dtd"
   xmlns:inkscape="http://www.inkscape.org/namespaces/inkscape"
   version="1.1"
   id="svg1"
   width="16"
   height="16"
   viewBox="0 0 16 16"
   sodipodi:docname="tool-tweak-symbolic.svg"
   inkscape:version="1.0alpha2 (119fb3b5e8, 2019-06-21, custom)">
  <style
     id="s0">.base {  }
.success {  }
.warning {  }
.error {  }
.dark {  }
</style>
  <style
     id="s2"> 
     @import '../../highlights.css'; 
  </style>
  <title
     id="title3468">symbolic icons</title>
  <metadata
     id="metadata943">
    <rdf:RDF>
      <cc:Work
         rdf:about="">
        <dc:format>image/svg+xml</dc:format>
        <dc:type
           rdf:resource="http://purl.org/dc/dcmitype/StillImage" />
        <dc:title>symbolic icons</dc:title>
      </cc:Work>
    </rdf:RDF>
  </metadata>
  <defs
     id="defs941" />
  <sodipodi:namedview
     inkscape:snap-global="true"
     objecttolerance="10"
     gridtolerance="10"
     guidetolerance="10"
     id="namedview"
     showgrid="true"
     inkscape:zoom="44.8"
     inkscape:cx="4.7025426"
     inkscape:cy="10.042447"
     inkscape:window-width="1920"
     inkscape:window-height="1016"
     inkscape:window-x="0"
     inkscape:window-y="27"
     inkscape:window-maximized="1"
     inkscape:current-layer="svg1"
     inkscape:document-rotation="0">
    <inkscape:grid
       type="xygrid"
       id="grid"
       dotted="false"
       spacingx="0.5"
       spacingy="0.5"
       empspacing="4" />
  </sodipodi:namedview>
  <g
     inkscape:label="tool-tweak"
     id="g0">
    <path
       id="background"
       d="M 0,0 H 16 V 16 H 0 Z"
       style="opacity:0"
       inkscape:connector-curvature="0" />
    <path
       class="base"
       id="path1702"
       d="M 0.5,15 0.5446353,9.3298225 c 0,0 1.7452285,-0.05625 3.1927949,-1.0204006 C 6.206793,6.664704 5.1119198,3.3735133 8.7560327,2.1882189 11.32823,1.3515789 13.617319,2.803097 13.814229,4.8532869 13.857136,5.300032 13.514545,5.5660383 13.085395,5.2953538 12.291964,4.7949001 11.198867,4.946675 10.65436,5.7842873 c -1.0542341,1.6217231 0.211599,3.2069115 2.031348,3.5926018 1.330726,0.2820433 2.858928,-0.047333 2.858928,-0.047333 L 15.5,15 Z" />
  </g>
</svg>
